Disaggregate univariate or multivariate time series from low to high frequency — disagg • fcutils
…
    Value

    interpolated object of the same type as the input

    Details

    the time-span of the high-frequency pattern has to match or be larger
than the time-span of the low frequency series. NA values are not allowed.

    Examples

quarterly_data_example |>
  disagg(conv_type = "mean", target_freq = "month")
#> # A tibble: 327 × 31
#>    time       E_NF_HI ECT_HI EMN_HI EWT_HI ERT_HI E_TRADE_HI E_TU_HI ETWTANS_HI
#>    <date>       <dbl>  <dbl>  <dbl>  <dbl>  <dbl>      <dbl>   <dbl>      <dbl>
#>  1 1998-01-01    530.   23.3   15.9   15.8   65.3       81.1    27.9       9.96
#>  2 1998-02-01    530.   23.3   15.9   15.9   65.2       81.0    27.9       9.96
#>  3 1998-03-01    531.   23.2   15.9   15.9   65.0       80.9    27.9       9.98
#>  4 1998-04-01    531.   23.1   15.8   15.9   64.8       80.7    27.9      10.00
#>  5 1998-05-01    531.   23.0   15.7   15.9   64.6       80.6    27.9      10.0 
#>  6 1998-06-01    532.   22.9   15.7   15.9   64.5       80.4    27.8      10.1 
#>  7 1998-07-01    532.   23.0   15.8   15.9   64.3       80.2    27.7      10.1 
#>  8 1998-08-01    533.   23.0   15.8   15.9   64.2       80.1    27.6      10.1 
#>  9 1998-09-01    533.   23.0   15.8   15.9   64.2       80.1    27.5      10.1 
#> 10 1998-10-01    532.   23.1   15.8   16.0   64.2       80.3    27.4      10.1 
#> # ℹ 317 more rows
#> # ℹ 22 more variables: ETWNS_HI <dbl>, EUT_HI <dbl>, EIF_HI <dbl>,
#> #   EFI_HI <dbl>, E_FIR_HI <dbl>, ERE_HI <dbl>, EPS_HI <dbl>, E_PBS_HI <dbl>,
#> #   E_ELSE_HI <dbl>, EMA_HI <dbl>, EAD_HI <dbl>, EED_HI <dbl>, EHC_HI <dbl>,
#> #   EAF_HI <dbl>, EAFAC_HI <dbl>, EAFFD_HI <dbl>, EOS_HI <dbl>, EGV_HI <dbl>,
#> #   EGVFD_HI <dbl>, EGVST_HI <dbl>, EGVSTEDNS_HI <dbl>, EGVLC_HI <dbl>
quarterly_data_example |>
  disagg(conv_type = "mean", target_freq = "month") |>
  tsbox::ts_long() |>
  tsbox::ts_frequency(to = "quarter", aggregate = "mean") |>
  tsbox::ts_wide() # this matches original data
#> # A tibble: 109 × 31
#>    time       E_NF_HI ECT_HI EMN_HI EWT_HI ERT_HI E_TRADE_HI E_TU_HI ETWTANS_HI
#>    <date>       <dbl>  <dbl>  <dbl>  <dbl>  <dbl>      <dbl>   <dbl>      <dbl>
#>  1 1998-01-01    531.   23.3   15.9   15.9   65.2       81.0    27.9       9.97
#>  2 1998-04-01    531.   23.0   15.8   15.9   64.6       80.6    27.9      10.0 
#>  3 1998-07-01    533.   23.0   15.8   15.9   64.2       80.1    27.6      10.1 
#>  4 1998-10-01    531.   23.1   15.8   16.0   64.2       80.2    27.3      10.00
#>  5 1999-01-01    530.   22.8   15.8   15.8   64.1       79.8    27.0       9.73
#>  6 1999-04-01    533.   22.9   15.9   15.8   64.8       80.6    27.4       9.97
#>  7 1999-07-01    537.   22.9   16.1   15.8   65.1       81.0    27.6      10.2 
#>  8 1999-10-01    541.   23.3   16.3   16.0   65.9       82.0    27.9      10.3 
#>  9 2000-01-01    544.   24.3   16.3   16.2   66.0       82.3    28.0      10.4 
#> 10 2000-04-01    551.   25.0   16.4   16.2   66.0       82.3    28.1      10.6 
#> # ℹ 99 more rows
#> # ℹ 22 more variables: ETWNS_HI <dbl>, EUT_HI <dbl>, EIF_HI <dbl>,
#> #   EFI_HI <dbl>, E_FIR_HI <dbl>, ERE_HI <dbl>, EPS_HI <dbl>, E_PBS_HI <dbl>,
#> #   E_ELSE_HI <dbl>, EMA_HI <dbl>, EAD_HI <dbl>, EED_HI <dbl>, EHC_HI <dbl>,
#> #   EAF_HI <dbl>, EAFAC_HI <dbl>, EAFFD_HI <dbl>, EOS_HI <dbl>, EGV_HI <dbl>,
#> #   EGVFD_HI <dbl>, EGVST_HI <dbl>, EGVSTEDNS_HI <dbl>, EGVLC_HI <dbl>
…
# using a high-frequency pattern
quarterly_data_example |>
  tsbox::ts_long() |>
  tsbox::ts_span("2005-01-01", "2020-01-01") |>
  disagg(
    conv_type = "mean", target_freq = "month", pattern = monthly_data_example |>
      tsbox::ts_long() |>
      tsbox::ts_pick("VISNS_HI")
  )
#> # A tibble: 5,490 × 3
#>    id      time       value
#>    <chr>   <date>     <dbl>
#>  1 E_NF_HI 2005-01-01  594.
#>  2 E_NF_HI 2005-02-01  594.
#>  3 E_NF_HI 2005-03-01  597.
#>  4 E_NF_HI 2005-04-01  599.
#>  5 E_NF_HI 2005-05-01  601.
#>  6 E_NF_HI 2005-06-01  604.
#>  7 E_NF_HI 2005-07-01  606.
#>  8 E_NF_HI 2005-08-01  607.
#>  9 E_NF_HI 2005-09-01  607.
#> 10 E_NF_HI 2005-10-01  607.
#> # ℹ 5,480 more rows
…
