Backward looking moving average — ma • fcutils
…
#> 2012-07-01     9    18
#> 2012-10-01    10    20
#> 2013-01-01    11    22
#> 2013-04-01    12    24
#> 2013-07-01    13    26
#> 2013-10-01    14    28
#> 2014-01-01    15    30
#> 2014-04-01    16    32
#> 2014-07-01    17    34
#> 2014-10-01    18    36
#> 2015-01-01    19    38
test |>
  tsbox::ts_tbl() |>
  ma(3)
#> # A tibble: 42 × 3
#>    id    time       value
#>    <chr> <date>     <dbl>
#>  1 test1 2010-01-01    NA
#>  2 test1 2010-04-01    NA
#>  3 test1 2010-07-01     1
#>  4 test1 2010-10-01     2
#>  5 test1 2011-01-01     3
#>  6 test1 2011-04-01     4
#>  7 test1 2011-07-01     5
#>  8 test1 2011-10-01     6
#>  9 test1 2012-01-01     7
#> 10 test1 2012-04-01     8
#> # ℹ 32 more rows
test |>
  tsbox::ts_tbl() |>
  tsbox::ts_wide() |>
  ma(3)
#> # A tibble: 21 × 3
#>    time       test1 test2
#>    <date>     <dbl> <dbl>
#>  1 2010-01-01    NA    NA
#>  2 2010-04-01    NA    NA
#>  3 2010-07-01     1     2
#>  4 2010-10-01     2     4
#>  5 2011-01-01     3     6
#>  6 2011-04-01     4     8
#>  7 2011-07-01     5    10
#>  8 2011-10-01     6    12
#>  9 2012-01-01     7    14
#> 10 2012-04-01     8    16
#> # ℹ 11 more rows
…
