Period to date growth rate — ptd_gr • fcutils
…
  dplyr::select(time, "VAPNS_HI") |>
  ptd_gr(per = "month", lag_length = "3 years") |>
  tail()
#> # A tibble: 6 × 2
#>   time       VAPNS_HI
#>   <date>        <dbl>
#> 1 2023-02-01    -7.69
#> 2 2023-03-01    98.7 
#> 3 2023-04-01  7514.  
#> 4 2023-05-01  3694.  
#> 5 2023-06-01  2241.  
#> 6 2023-07-01  1620.  
daily_data_example |>
  ptd_gr("week")
#> # A tibble: 206 × 3
#>    time       VISPNS_HI VAPNS_HI
#>    <date>         <dbl>    <dbl>
#>  1 2021-09-01     1848.     657.
#>  2 2021-09-02     2200.     772.
#>  3 2021-09-03     2280.     830.
#>  4 2021-09-04     2330.     947.
#>  5 2021-09-05     1946.     863.
#>  6 2021-09-06     2696.    1217.
#>  7 2021-09-07     2147.    1043.
#>  8 2021-09-08     2137.    1064.
#>  9 2021-09-09     2287.    1076.
#> 10 2021-09-10     2242.    1055.
#> # ℹ 196 more rows
…
