…
  if TRUE (default), retorn period to date average, if FALSE, return
  period to date sum

## Value

object of the same type as the input containing period to date sum or
average

## Examples

``` r
daily_data_example |>
  ptd_cum("week")
#> # A tibble: 571 × 3
#>    time       VISPNS_HI VAPNS_HI
#>    <date>         <dbl>    <dbl>
#>  1 2020-09-01      783      2.52
#>  2 2020-09-02      726.     2.32
#>  3 2020-09-03      749      2.27
#>  4 2020-09-04      760.     2.06
#>  5 2020-09-05      752.     1.98
#>  6 2020-09-06      513      1.44
#>  7 2020-09-07      633      1.66
#>  8 2020-09-08      648.     1.61
#>  9 2020-09-09      631.     1.62
#> 10 2020-09-10      661.     1.66
#> # ℹ 561 more rows
…
