Format series names to udaman format (mnemonic@loc.freq) — rename_udaman • fcutils
…
#> [1] "E_NF@HI.M" "ECT@HI.M"  "VAP@HAW.W"
rename_udaman(c("SH_US@HI.M", "SH_JP__HON_M"))
#> [1] "SH_US@HI.M" "SH_JP@JP.M"
rename_udaman(c("E_NF_HI5", "ECT__HIALL", "E_TU@CNTY"), freq = "M")
#>  [1] "E_NF@HI.M"  "E_NF@HON.M" "E_NF@HAW.M" "E_NF@MAU.M" "E_NF@KAU.M"
#>  [6] "ECT@HI.M"   "ECT@HON.M"  "ECT@HAW.M"  "ECT@MAU.M"  "ECT@KAU.M" 
#> [11] "ECT@MAUI.M" "ECT@MOL.M"  "ECT@LAN.M"  "E_TU@HON.M" "E_TU@HAW.M"
#> [16] "E_TU@MAU.M" "E_TU@KAU.M"
rename_udaman(c("E_NF_HI5 , ECT__HIALL  E_TU@CNTY", "VAP_HAW ; ECT_HON"), freq = "M")
#>  [1] "E_NF@HI.M"  "E_NF@HON.M" "E_NF@HAW.M" "E_NF@MAU.M" "E_NF@KAU.M"
#>  [6] "ECT@HI.M"   "ECT@HON.M"  "ECT@HAW.M"  "ECT@MAU.M"  "ECT@KAU.M" 
#> [11] "ECT@MAUI.M" "ECT@MOL.M"  "ECT@LAN.M"  "E_TU@HON.M" "E_TU@HAW.M"
#> [16] "E_TU@MAU.M" "E_TU@KAU.M" "VAP@HAW.M"  "ECT@HON.M" 
quarterly_data_example |> dplyr::rename_with(~ rename_udaman(., freq = "M"), .cols = -1)
#> # A tibble: 109 × 31
#>    time       `E_NF@HI.M` `ECT@HI.M` `EMN@HI.M` `EWT@HI.M` `ERT@HI.M`
#>    <date>           <dbl>      <dbl>      <dbl>      <dbl>      <dbl>
#>  1 1998-01-01        531.       23.3       15.9       15.9       65.2
#>  2 1998-04-01        531.       23.0       15.8       15.9       64.6
#>  3 1998-07-01        533.       23.0       15.8       15.9       64.2
#>  4 1998-10-01        531.       23.1       15.8       16         64.2
#>  5 1999-01-01        530.       22.8       15.8       15.8       64.1
#>  6 1999-04-01        533.       22.9       15.9       15.8       64.8
#>  7 1999-07-01        537.       22.9       16.1       15.8       65.1
#>  8 1999-10-01        541.       23.3       16.3       16.0       65.9
#>  9 2000-01-01        544.       24.3       16.3       16.2       66.0
#> 10 2000-04-01        551.       25.0       16.4       16.2       66.0
#> # ℹ 99 more rows
#> # ℹ 25 more variables: `E_TRADE@HI.M` <dbl>, `E_TU@HI.M` <dbl>,
#> #   `ETWTANS@HI.M` <dbl>, `ETWNS@HI.M` <dbl>, `EUT@HI.M` <dbl>,
#> #   `EIF@HI.M` <dbl>, `EFI@HI.M` <dbl>, `E_FIR@HI.M` <dbl>, `ERE@HI.M` <dbl>,
#> #   `EPS@HI.M` <dbl>, `E_PBS@HI.M` <dbl>, `E_ELSE@HI.M` <dbl>,
#> #   `EMA@HI.M` <dbl>, `EAD@HI.M` <dbl>, `EED@HI.M` <dbl>, `EHC@HI.M` <dbl>,
#> #   `EAF@HI.M` <dbl>, `EAFAC@HI.M` <dbl>, `EAFFD@HI.M` <dbl>, …
quarterly_data_example |> dplyr::rename_with(rename_udaman, freq = "M", .cols = !time)
#> # A tibble: 109 × 31
#>    time       `E_NF@HI.M` `ECT@HI.M` `EMN@HI.M` `EWT@HI.M` `ERT@HI.M`
#>    <date>           <dbl>      <dbl>      <dbl>      <dbl>      <dbl>
#>  1 1998-01-01        531.       23.3       15.9       15.9       65.2
#>  2 1998-04-01        531.       23.0       15.8       15.9       64.6
#>  3 1998-07-01        533.       23.0       15.8       15.9       64.2
#>  4 1998-10-01        531.       23.1       15.8       16         64.2
#>  5 1999-01-01        530.       22.8       15.8       15.8       64.1
#>  6 1999-04-01        533.       22.9       15.9       15.8       64.8
#>  7 1999-07-01        537.       22.9       16.1       15.8       65.1
#>  8 1999-10-01        541.       23.3       16.3       16.0       65.9
#>  9 2000-01-01        544.       24.3       16.3       16.2       66.0
#> 10 2000-04-01        551.       25.0       16.4       16.2       66.0
#> # ℹ 99 more rows
#> # ℹ 25 more variables: `E_TRADE@HI.M` <dbl>, `E_TU@HI.M` <dbl>,
#> #   `ETWTANS@HI.M` <dbl>, `ETWNS@HI.M` <dbl>, `EUT@HI.M` <dbl>,
#> #   `EIF@HI.M` <dbl>, `EFI@HI.M` <dbl>, `E_FIR@HI.M` <dbl>, `ERE@HI.M` <dbl>,
#> #   `EPS@HI.M` <dbl>, `E_PBS@HI.M` <dbl>, `E_ELSE@HI.M` <dbl>,
#> #   `EMA@HI.M` <dbl>, `EAD@HI.M` <dbl>, `EED@HI.M` <dbl>, `EHC@HI.M` <dbl>,
#> #   `EAF@HI.M` <dbl>, `EAFAC@HI.M` <dbl>, `EAFFD@HI.M` <dbl>, …
…
